{
	"info": {
		"_postman_id": "7faba727-4b0e-42db-a831-bfbf52d64873",
		"name": "Simpe Book API",
		"schema": "https://schema.getpostman.com/json/collection/v2.1.0/collection.json",
		"_exporter_id": "9103744"
	},
	"item": [
		{
			"name": "API Status",
			"event": [
				{
					"listen": "test",
					"script": {
						"exec": [
							"pm.test(\"Status code is 200\", function () {\r",
							"    pm.response.to.have.status(200);\r",
							"});\r",
							"\r",
							"const response  =  pm.response.json();\r",
							"\r",
							"console.log(response.status);\r",
							"console.log(response['status']);\r",
							"\r",
							"pm.test(\"Status should be OK\", () => {\r",
							"    pm.expect(response.status).to.eql(\"OK\");\r",
							"});\r",
							"\r",
							"postman.setNextRequest(\"List of books\");\r",
							""
						],
						"type": "text/javascript"
					}
				}
			],
			"request": {
				"method": "GET",
				"header": [],
				"url": {
					"raw": "{{baseUrl}}/status",
					"host": [
						"{{baseUrl}}"
					],
					"path": [
						"status"
					]
				}
			},
			"response": []
		},
		{
			"name": "List of books",
			"event": [
				{
					"listen": "test",
					"script": {
						"exec": [
							"pm.test(\"Status code is 200\",  () => {\r",
							"    pm.response.to.have.status(200);\r",
							"});\r",
							"\r",
							"const response = pm.response.json();\r",
							"\r",
							"const nonFictionBooks = response.filter((book) => book.available === true);\r",
							"\r",
							"const book = nonFictionBooks[0];\r",
							"\r",
							"if (book) {\r",
							"    pm.globals.set(\"bookId\", book.id);\r",
							"}\r",
							"\r",
							"pm.test(\"Book found\", () => {\r",
							"    pm.expect(book).to.be.an('object');\r",
							"    pm.expect(book.available).to.be.true;\r",
							"    pm.expect(book.available).to.eql(true);\r",
							"    pm.expect(book.type).to.eql(\"non-fiction\");\r",
							"});\r",
							""
						],
						"type": "text/javascript"
					}
				}
			],
			"request": {
				"method": "GET",
				"header": [],
				"url": {
					"raw": "{{baseUrl}}/books?type=non-fiction",
					"host": [
						"{{baseUrl}}"
					],
					"path": [
						"books"
					],
					"query": [
						{
							"key": "type",
							"value": "non-fiction"
						}
					]
				}
			},
			"response": []
		},
		{
			"name": "Get single book",
			"event": [
				{
					"listen": "test",
					"script": {
						"exec": [
							"pm.test(\"Status code is 200\",  () => {\r",
							"    pm.response.to.have.status(200);\r",
							"});\r",
							"\r",
							"const response = pm.response.json();\r",
							"\r",
							"pm.test(\"Is in stock\",  () => {\r",
							"    pm.expect(response['current-stock']).to.be.above(0);\r",
							"});"
						],
						"type": "text/javascript"
					}
				}
			],
			"request": {
				"method": "GET",
				"header": [],
				"url": {
					"raw": "{{baseUrl}}/books/:id",
					"host": [
						"{{baseUrl}}"
					],
					"path": [
						"books",
						":id"
					],
					"variable": [
						{
							"key": "id",
							"value": "{{bookId}}"
						}
					]
				}
			},
			"response": []
		},
		{
			"name": "Order Book",
			"event": [
				{
					"listen": "test",
					"script": {
						"exec": [
							"pm.test(\"Status code is 201\",  () => {\r",
							"    pm.response.to.have.status(201);\r",
							"});\r",
							"\r",
							"const response = pm.response.json();\r",
							"\r",
							"pm.globals.set(\"orderId\", response.orderId);"
						],
						"type": "text/javascript"
					}
				}
			],
			"request": {
				"auth": {
					"type": "bearer",
					"bearer": [
						{
							"key": "token",
							"value": "{{accessToken}}",
							"type": "string"
						}
					]
				},
				"method": "POST",
				"header": [],
				"body": {
					"mode": "raw",
					"raw": "{\r\n  \"bookId\": 1,\r\n  \"customerName\": \"{{$randomFullName}}\"\r\n}",
					"options": {
						"raw": {
							"language": "json"
						}
					}
				},
				"url": {
					"raw": "{{baseUrl}}/orders",
					"host": [
						"{{baseUrl}}"
					],
					"path": [
						"orders"
					]
				}
			},
			"response": []
		},
		{
			"name": "Get all book orders",
			"event": [
				{
					"listen": "test",
					"script": {
						"exec": [
							"pm.test(\"Status code is 200\",  () => {\r",
							"    pm.response.to.have.status(200);\r",
							"});\r",
							""
						],
						"type": "text/javascript"
					}
				}
			],
			"protocolProfileBehavior": {
				"disableBodyPruning": true
			},
			"request": {
				"auth": {
					"type": "bearer",
					"bearer": [
						{
							"key": "token",
							"value": "{{accessToken}}",
							"type": "string"
						}
					]
				},
				"method": "GET",
				"header": [],
				"body": {
					"mode": "raw",
					"raw": "{\r\n  \"bookId\": 1,\r\n  \"customerName\": \"{{$randomFullName}}\"\r\n}",
					"options": {
						"raw": {
							"language": "json"
						}
					}
				},
				"url": {
					"raw": "{{baseUrl}}/orders",
					"host": [
						"{{baseUrl}}"
					],
					"path": [
						"orders"
					]
				}
			},
			"response": []
		},
		{
			"name": "Get an order",
			"event": [
				{
					"listen": "test",
					"script": {
						"exec": [
							"pm.test(\"Status code is 200\",  () => {\r",
							"    pm.response.to.have.status(200);\r",
							"});\r",
							""
						],
						"type": "text/javascript"
					}
				}
			],
			"protocolProfileBehavior": {
				"disableBodyPruning": true
			},
			"request": {
				"auth": {
					"type": "bearer",
					"bearer": [
						{
							"key": "token",
							"value": "{{accessToken}}",
							"type": "string"
						}
					]
				},
				"method": "GET",
				"header": [],
				"body": {
					"mode": "raw",
					"raw": "{\r\n  \"bookId\": 1,\r\n  \"customerName\": \"{{$randomFullName}}\"\r\n}",
					"options": {
						"raw": {
							"language": "json"
						}
					}
				},
				"url": {
					"raw": "{{baseUrl}}/orders/:orderId",
					"host": [
						"{{baseUrl}}"
					],
					"path": [
						"orders",
						":orderId"
					],
					"variable": [
						{
							"key": "orderId",
							"value": "{{orderId}}"
						}
					]
				}
			},
			"response": []
		},
		{
			"name": "Update an order",
			"event": [
				{
					"listen": "test",
					"script": {
						"exec": [
							"pm.test(\"Status code is 204\",  () => {\r",
							"    pm.response.to.have.status(204);\r",
							"});\r",
							""
						],
						"type": "text/javascript"
					}
				}
			],
			"request": {
				"auth": {
					"type": "bearer",
					"bearer": [
						{
							"key": "token",
							"value": "{{accessToken}}",
							"type": "string"
						}
					]
				},
				"method": "PATCH",
				"header": [],
				"body": {
					"mode": "raw",
					"raw": "{\r\n  \"customerName\": \"John {{$randomLastName}}\"\r\n}",
					"options": {
						"raw": {
							"language": "json"
						}
					}
				},
				"url": {
					"raw": "{{baseUrl}}/orders/:orderId",
					"host": [
						"{{baseUrl}}"
					],
					"path": [
						"orders",
						":orderId"
					],
					"variable": [
						{
							"key": "orderId",
							"value": "{{orderId}}"
						}
					]
				}
			},
			"response": []
		},
		{
			"name": "Delete order",
			"event": [
				{
					"listen": "test",
					"script": {
						"exec": [
							"pm.test(\"Status code is 204\",  () => {\r",
							"    pm.response.to.have.status(204);\r",
							"});\r",
							"\r",
							"postman.setNextRequest(null);"
						],
						"type": "text/javascript"
					}
				}
			],
			"request": {
				"auth": {
					"type": "bearer",
					"bearer": [
						{
							"key": "token",
							"value": "{{accessToken}}",
							"type": "string"
						}
					]
				},
				"method": "DELETE",
				"header": [],
				"body": {
					"mode": "raw",
					"raw": "{\r\n  \"customerName\": \"John {{$randomLastName}}\"\r\n}",
					"options": {
						"raw": {
							"language": "json"
						}
					}
				},
				"url": {
					"raw": "{{baseUrl}}/orders/:orderId",
					"host": [
						"{{baseUrl}}"
					],
					"path": [
						"orders",
						":orderId"
					],
					"variable": [
						{
							"key": "orderId",
							"value": "{{orderId}}"
						}
					]
				}
			},
			"response": []
		},
		{
			"name": "Register API Client",
			"event": [
				{
					"listen": "test",
					"script": {
						"exec": [
							"pm.test(\"Status code is 409\",  () => {\r",
							"    pm.response.to.have.status(409);\r",
							"});\r",
							""
						],
						"type": "text/javascript"
					}
				}
			],
			"request": {
				"method": "POST",
				"header": [],
				"body": {
					"mode": "raw",
					"raw": "{\r\n   \"clientName\": \"Abdul\",\r\n   \"clientEmail\": \"abdul@gmail.com\"\r\n}",
					"options": {
						"raw": {
							"language": "json"
						}
					}
				},
				"url": {
					"raw": "{{baseUrl}}/api-clients",
					"host": [
						"{{baseUrl}}"
					],
					"path": [
						"api-clients"
					]
				}
			},
			"response": []
		}
	],
	"event": [
		{
			"listen": "prerequest",
			"script": {
				"type": "text/javascript",
				"exec": [
					""
				]
			}
		},
		{
			"listen": "test",
			"script": {
				"type": "text/javascript",
				"exec": [
					""
				]
			}
		}
	],
	"variable": [
		{
			"key": "baseUrl",
			"value": "https://simple-books-api.glitch.me"
		},
		{
			"key": "accessToken",
			"value": "5e6fb099e221eef5494c39fdd131cc03dd83ba059b0f428ea4720c2ace0efd65",
			"type": "string"
		}
	]
}